; Target
target triple = "x86_64-unknown-linux-gnu"
; External declarations
declare i32 @printf(i8* noalias nocapture, ...)
declare i32 @scanf(i8* noalias nocapture, ...)
declare i8* @malloc(i32)
declare i32 @strlen(i8* noalias nocapture)
declare void @strcpy(i8* noalias nocapture, i8* noalias nocapture)
declare void @sprintf(i8* noalias nocapture, i8* noalias nocapture, ...)

; Actual code begins


define i32 @main() {
ret i32 0
ret i32 0
}

