; Target
target triple = "x86_64-unknown-linux-gnu"
; External declarations
declare i32 @printf(i8* noalias nocapture, ...)
declare i32 @scanf(i8* noalias nocapture, ...)
declare i8* @malloc(i32)
declare i32 @strlen(i8* noalias nocapture)
declare void @strcpy(i8* noalias nocapture, i8* noalias nocapture)
declare void @sprintf(i8* noalias nocapture, i8* noalias nocapture, ...)

; Actual code begins
@.fmt1 = global [3 x i8] c"%d\00"


define void @main() {
call i32 (i8*, ...) @printf(i8* getelementptr inbounds ([3 x i8], [3 x i8]* @.fmt1, i64 0, i64 0), i32 1)
ret void
}

